{
  "type": "service_account",
  "project_id": "better-76180",
  "private_key_id": "0581c6631e89349811e816f0eedd935d317c628c",
  "private_key": "-----BEGIN PRIVATE KEY-----\nMIIEvAIBADANBgkqhkiG9w0BAQEFAASCBKYwggSiAgEAAoIBAQDKvSSWD+Y8DWpB\nxRYHeup17reyIb1KUgzoutonkaAGpnm3TpXlbbvGb2xHlOT+QG3vdfnXw9iA2Hso\nMhY8fLQHBTqvz6nT295eHeetQePuvr5sioEYeoqZej+eqsmbThieks++ag6sGJdq\nNcpl57Vp6ykrnYtSa9scmJo5TJ0oY45es92uOKlGKMvtm0jcNkZdbXBZmV1KIUWk\n8c5D00hVZF23lxuu8lwsk1/nNnZ5fH3ASb2ieifULi3skRJtjG5OXVwWWWAdFmPT\nHYRWJESEe5s04FpmKw+rqm0Qpc9ZWPBgqXjTAfLxfBgAQyol2/8mewpj6OlK2QBH\npVANPdFNAgMBAAECggEABOb0lC785trUL5RFEhfmGhqUP9m8//0NPttgcbB9vsDB\nFK5GcEO/qe6ryZdPai5t+hT6M5NoEBrWmi7hMW6P09OhNaW/JNZI1txrllmPhLMB\nW70wSJfonglssbjOIyk3mINS7qHAimdrJzBMcpEFu/KUY5pC8ifq0RLc4ncjHa+E\n1K2pV4wKdfc9Kk8+QFASFMIx4BwFNHa+iwntGsrgK+eZz9kwWXj4G9HJieTh7O7i\ncGd5pJ0sQ4bxICRwe7WncJRmNh75v0Bmg2aq7RiZdMl6wOZLj18Fimp5Yo9R7QsC\nqUhuceXiTDA5oQzQ9x7inkbi/1iITvfztagpFuhhgQKBgQD9Zc9BxlAG6aJhFju/\nvqNk/8FRuk4dCONqE48GmDYkAAT5MuMox4EhnsVrwM6Ey7hMtUHIXSZuIS3tkIsh\n7q6EukaOI6d447NpdDvutU9xajF7P4Ntm04ghzGOuPUGkVBw+POQme0f/zqgiuOk\ngKTsD6NgdJVYYF5+TZRL5vwTnQKBgQDM0iZNTlKAOEdyPN39t6OCkJG9Gw6DDr01\n2sK3ZkJNx3Zg1oABjU0AfA0PqilK4hW2mMbK7khGdMWOze5cK5fwHD8QUGqgwKHp\nfnYn693IN261faXe2HJhZN+lM+2p0Cy7dCKC7tLheVVQDNVXj3vvrxnM5j97dO/l\nxOJeqMP9cQKBgHqIX8eTqSEemynNgYkAG6z8S7REnf9GTAoAeTocIpoX9E+4vsX6\na0QhrZ+kdXkbtfxJ7gyAltPMcZQeQFlhPLzsArA7J4G6wggtb8nHnSnfyxupI9m9\nrvLlzR4R7FKHtFlc2RLEjDjbx7LYVqo2lwmbqko7NfitaSQ0SZDGmoC1AoGAC3EN\n3LGsYCdErngB+qNgifGjgonZZK7VGQYQbIhU2d1zmnNBEVUgYQ+M9zwNNHauudWM\n/VcUSINLae/NCe8RfMNHLpUfb71zDgUXeqFtcTrPf2n2cx1qPlCRQbxF4X+UkCAr\nsV6//wJ1JpSg8lQ8myYP7edK0o20vQQjlSAeWrECgYAkDBVHxEbJe8MF05AGwGZl\n33qiXL0o76rQ1q0K6c5pMtJAUOISfQKMIXTWnMgcpurXrs5yIhkYZjIGWHy2Va5X\npT0WGJVJDjAeAlllznYRc1DAEJyvfldS3zwnIE2xWczsc5wSK67FR/k+EJSh20pC\naNKqy0R4nBU8x9Egb5ONVw==\n-----END PRIVATE KEY-----\n",
  "client_email": "firebase-adminsdk-f2snz@better-76180.iam.gserviceaccount.com",
  "client_id": "114926915920262952796",
  "auth_uri": "https://accounts.google.com/o/oauth2/auth",
  "token_uri": "https://oauth2.googleapis.com/token",
  "auth_provider_x509_cert_url": "https://www.googleapis.com/oauth2/v1/certs",
  "client_x509_cert_url": "https://www.googleapis.com/robot/v1/metadata/x509/firebase-adminsdk-f2snz%40better-76180.iam.gserviceaccount.com"
}